[{
    "source": "jobs2careers",
    "removeSubString": "&t2=",
    "subId": "&t2=drt"
}, {
    "source": "j2c",
    "removeSubString": "&t2=",
    "subId": "&t2=drt"

}, {
    "source": "TopUSAJobs",
    "removeSubString": "&f=fbg",
    "subId": "&f=fbg019"

}, {
    "source": "juju",
    "removeSubString": "&amp;channel=staticfile",
    "subId": "&channel=drt"

}, {
    "source": "lead",
    "removeSubString": "&CHID=",
    "subId": "&CHID=drt"

}, {
    "source": "Athena Health",
    "removeSubString": "&CODES=JAPJAP",
    "subId": "&CODES=JAPJAP"
}]

