[
{
    "name": "Viktre",
    "a_id": "Viktre",
    "fileName": "fbg-viktre.xml",
    "isActive": true,
    "jobExportLimit": 10000000,
    "cutCpcInHalf": true,
    "xmlStartEelementName": "source",
    "xmlPublisherElementName": "publisher",
    "xmlPublisherurlElementName": "publisherurl",
    "xmlLastBuildDateElementName": "lastBuildDate",
    "minCpc": "0",
    "includedTitles": [],
    "excludedTitles": [],
    "excludedSources": [],
    "includedSources": [
        "Viktre Careers",
        "Monster - Appcast",
        "VCN Single Job Posts"
    ],
    "query": ""
},
{
    "name": "NexGoal",
    "a_id": "NexGoal",
    "fileName": "nexgoal.xml",
    "isActive": true,
    "jobExportLimit": 20000,
    "cutCpcInHalf": true,
    "xmlStartEelementName": "source",
    "xmlPublisherElementName": "publisher",
    "xmlPublisherurlElementName": "publisherurl",
    "xmlLastBuildDateElementName": "lastBuildDate",
    "minCpc": ".3",
    "includedTitles": [
        "sale",
        "Retail"
    ],
    "excludedTitles": [],
    "excludedSources": [
        "Viktre Careers",
        "Monster - Appcast",
        "VCN Single Job Posts",
        "NexGoal"
    ],
    "includedSources": [],
    "query": ""
},
{
    "name": "juju",
    "a_id": "Juju",
    "fileName": "fbg-juju.xml",
    "isActive": true,
    "jobExportLimit": 10000000,
    "cutCpcInHalf": true,
    "xmlStartEelementName": "positionfeed",
    "xmlPublisherElementName": "source",
    "xmlPublisherurlElementName": "sourceurl",
    "xmlLastBuildDateElementName": "feeddate",
    "minCpc": ".3",
    "includedTitles": [],
    "excludedTitles": [],
    "excludedSources": [
        "Viktre Careers",
        "Monster - Appcast",
        "VCN Single Job Posts",
        "Juju Infeed Alpha",
        "Juju Infeed Beta"
    ],
    "includedSources": [

    ],
    "query": ""
},
{
    "name": "CB",
    "a_id": "CB",
    "fileName": "fbg-cb.xml",
    "isActive": true,
    "jobExportLimit": 10000000,
    "cutCpcInHalf": true,
    "xmlStartEelementName": "source",
    "xmlPublisherElementName": "publisher",
    "xmlPublisherurlElementName": "publisherurl",
    "xmlLastBuildDateElementName": "lastBuildDate",
    "minCpc": ".3",
    "includedTitles": [],
    "excludedTitles": [],
    "excludedSources": [
        "Viktre Careers",
        "Monster - Appcast",
        "VCN Single Job Posts",
        "CareerBliss 1",
        "CareerBliss 2",
        "CareerBliss 21",
        "CareerBliss 3",
        "CareerBliss 50",
        "CareerBliss 72"
    ],
    "includedSources": [

    ],
    "query": ""
},
{
    "name": "AML",
    "a_id": "AML",
    "fileName": "fbg-americanlisted.xml",
    "isActive": true,
    "jobExportLimit": 10000000,
    "cutCpcInHalf": true,
    "xmlStartEelementName": "source",
    "xmlPublisherElementName": "publisher",
    "xmlPublisherurlElementName": "publisherurl",
    "xmlLastBuildDateElementName": "lastBuildDate",
    "minCpc": ".3",
    "includedTitles": [],
    "excludedTitles": [],
    "excludedSources": [
        "Viktre Careers",
        "Monster - Appcast",
        "VCN Single Job Posts",
        "Neuvoo US",
        "Neuvoo Canada",
        "Neuvoo UK"
    ],
    "includedSources": [

    ],
    "query": ""
},
{
    "name": "jobcafe",
    "a_id": "jobcafe",
    "fileName": "fbg-jobcafe.xml",
    "isActive": false,
    "jobExportLimit": 10000000,
    "cutCpcInHalf": true,
    "xmlStartEelementName": "source",
    "xmlPublisherElementName": "publisher",
    "xmlPublisherurlElementName": "publisherurl",
    "xmlLastBuildDateElementName": "lastBuildDate",
    "minCpc": ".3",
    "includedTitles": [],
    "excludedTitles": [],
    "excludedSources": [
        "Viktre Careers",
        "Monster - Appcast",
        "VCN Single Job Posts"
    ],
    "includedSources": [

    ],
    "query": ""
},
{
    "name": "Simply",
    "a_id": "Simply",
    "fileName": "fbg-simply.xml",
    "isActive": true,
    "jobExportLimit": 10000000,
    "cutCpcInHalf": true,
    "xmlStartEelementName": "source",
    "xmlPublisherElementName": "publisher",
    "xmlPublisherurlElementName": "publisherurl",
    "xmlLastBuildDateElementName": "lastBuildDate",
    "minCpc": ".3",
    "includedTitles": [],
    "excludedTitles": [],
    "excludedSources": [
        "Viktre Careers",
        "Monster - Appcast",
        "VCN Single Job Posts"
    ],
    "includedSources": [],
    "query": ""
}]